\relax 
\citation{index520862global}
\citation{index2013zettabyte}
\@writefile{lof}{\contentsline {figure}{\numberline {1}{\ignorespaces Multi-concept based video retrieval is the central component in many video retrieval systems. It takes as input the multi-concept queries and then returns a ranked list of videos. The multiple concepts in a query could be directly supplied by the users or inferred by the systems from the users'{} text queries. }}{\thepage }}
\newlabel{fConcept}{{1}{\thepage }}
\@writefile{toc}{\contentsline {section}{\numberline {1}Introduction}{\thepage }}
\newlabel{sIntro}{{1}{\thepage }}
\citation{aslandogan1999techniques}
\citation{hu2011survey}
\citation{snoek2008concept}
\citation{snoek2008concept}
\citation{hu2011survey}
\citation{over2014trecvid}
\citation{hauptmann2007many}
\citation{chang2007large}
\citation{qi2007correlative}
\citation{yang2012complex}
\citation{snoek2013mediamill}
\citation{dehghanucf}
\citation{ye2015eventnet}
\citation{snoek2007adding}
\citation{neo2006video}
\citation{wang2007importance}
\citation{natsev2007semantic}
\citation{snoek2007adding}
\citation{haubold2008web}
\citation{wei2008selection}
\citation{kennedy2008query}
\citation{mc2005comparison}
\citation{aytar2008utilizing}
\citation{lan2012image}
\citation{grangier2008discriminative}
\citation{siddiquie2011image}
\citation{yu2012weak}
\citation{siddiquie2011image}
\citation{yu2012weak}
\citation{smeaton2007techniques}
\citation{snoek2008concept}
\citation{2015trecvidover}
\citation{neo2006video}
\citation{wang2007importance}
\citation{natsev2007semantic}
\citation{snoek2007adding}
\citation{haubold2008web}
\citation{wei2008selection}
\citation{kennedy2008query}
\citation{jiang2015bridging}
\citation{chang2005columbia}
\citation{campbell2007ibm}
\citation{yan2003combination}
\citation{mc2005comparison}
\citation{aytar2008utilizing}
\citation{li2007video}
\citation{smeaton2009high}
\citation{iyengar2003discriminative}
\citation{snoek2006challenge}
\citation{chen2014deepsentibank}
\citation{ye2015eventnet}
\citation{li2010object}
\citation{sadanand2012action}
\citation{althoff2012detection}
\citation{torresani2010efficient}
\citation{yang2012complex}
\citation{chen2014deepsentibank}
\citation{ye2015eventnet}
\citation{lampert2014attribute}
\citation{farhadi2009describing}
\citation{li2013harvesting}
\citation{siddiquie2011image}
\citation{yu2012weak}
\citation{tsochantaridis2004support}
\citation{yu2009learning}
\citation{siddiquie2011image}
\citation{yu2012weak}
\citation{vapnik2013nature}
\citation{herbrich1999large}
\citation{joachims2002optimizing}
\citation{shashua2002ranking}
\citation{grangier2008discriminative}
\citation{lan2012image}
\citation{herbrich1999large}
\citation{joachims2002optimizing}
\citation{grangier2008discriminative}
\citation{lan2012image}
\citation{siddiquie2011image}
\citation{yu2012weak}
\citation{tsochantaridis2004support}
\citation{petterson2010reverse}
\citation{grangier2008discriminative}
\citation{siddiquie2011image}
\citation{yu2012weak}
\citation{joachims2002optimizing}
\citation{herbrich1999large}
\@writefile{toc}{\contentsline {section}{\numberline {2}Related Work}{\thepage }}
\newlabel{sRelated}{{2}{\thepage }}
\@writefile{toc}{\contentsline {section}{\numberline {3}Proposed approach}{\thepage }}
\newlabel{sApproach}{{3}{\thepage }}
\@writefile{toc}{\contentsline {subsection}{\numberline {3.1}Retrieval model}{\thepage }}
\newlabel{sModel}{{3.1}{\thepage }}
\newlabel{eRetrieval}{{1}{\thepage }}
\@writefile{toc}{\contentsline {paragraph}{Retrieval as ranking}{\thepage }}
\newlabel{eRanking}{{2}{\thepage }}
\newlabel{eScore}{{3}{\thepage }}
\@writefile{toc}{\contentsline {paragraph}{Learning model parameters $\bm  {\Theta }$}{\thepage }}
\newlabel{eP}{{4}{\thepage }}
\citation{grangier2008discriminative}
\citation{wang2007importance}
\citation{kennedy2008query}
\citation{ye2015eventnet}
\citation{sadanand2012action}
\citation{althoff2012detection}
\@writefile{toc}{\contentsline {subsection}{\numberline {3.2}Video-level concept detection}{\thepage }}
\newlabel{sVideo}{{3.2}{\thepage }}
\@writefile{toc}{\contentsline {paragraph}{Weighted average}{\thepage }}
\newlabel{eAvg}{{5}{\thepage }}
\@writefile{toc}{\contentsline {paragraph}{Extensions}{\thepage }}
\newlabel{eCorr2}{{7}{\thepage }}
\@writefile{toc}{\contentsline {subsection}{\numberline {3.3}Shot-level concept detection}{\thepage }}
\newlabel{sShot}{{3.3}{\thepage }}
\@writefile{toc}{\contentsline {paragraph}{Scoring the best shot}{\thepage }}
\@writefile{toc}{\contentsline {paragraph}{Scoring across shots}{\thepage }}
\citation{ping2014marginal}
\citation{over2014trecvid}
\citation{over2014trecvid}
\citation{2015trecvidover}
\citation{jarvelin2008discounted}
\citation{qi2007correlative}
\citation{ye2015eventnet}
\citation{snoek2013mediamill}
\citation{dehghanucf}
\citation{over2014trecvid}
\citation{lowe2004distinctive}
\citation{krizhevsky2012imagenet}
\citation{vedaldi2010vlfeat}
\citation{perronnin2010improving}
\@writefile{toc}{\contentsline {paragraph}{Gradients}{\thepage }}
\newlabel{eD}{{10}{\thepage }}
\@writefile{toc}{\contentsline {section}{\numberline {4}Experimental Results}{\thepage }}
\newlabel{sExp}{{4}{\thepage }}
\@writefile{toc}{\contentsline {subsection}{\numberline {4.1}Experiment setup}{\thepage }}
\@writefile{toc}{\contentsline {subsubsection}{\numberline {4.1.1}The IACC.2.B dataset for video retrieval}{\thepage }}
\@writefile{toc}{\contentsline {subsubsection}{\numberline {4.1.2}Evaluation }{\thepage }}
\newlabel{eNDCG}{{13}{\thepage }}
\@writefile{toc}{\contentsline {subsubsection}{\numberline {4.1.3}Concept detectors}{\thepage }}
\newlabel{sDetector}{{4.1.3}{\thepage }}
\citation{guillaumin2009tagprop}
\citation{chapelle2010efficient}
\citation{ishikawa2013picsom}
\citation{campbell2007ibm}
\citation{yan2003combination}
\citation{ishikawa2013picsom}
\citation{campbell2007ibm}
\citation{ishikawa2013picsom}
\citation{ishikawa2013picsom}
\citation{joachims2002optimizing}
\citation{guillaumin2009tagprop}
\citation{yu2012weak}
\@writefile{lot}{\contentsline {table}{\numberline {1}{\ignorespaces \relax \fontsize  {9}{10.5\p@ }\selectfont  \abovedisplayskip 6\p@ plus2\p@ minus\p@ \belowdisplayskip \abovedisplayskip \abovedisplayshortskip 6\p@ minus3\p@ \belowdisplayshortskip 6\p@ minus3\p@ \let \leftmargin \leftmargini \parsep 3.6pt plus 2pt minus 1pt\topsep 7.2pt plus 2pt minus 4pt\itemsep 3.6pt plus 2pt minus 1pt\leftmargin \leftmargini \parsep 3.6pt plus 2pt minus 1pt\topsep 7.2pt plus 2pt minus 4pt\itemsep 3.6pt plus 2pt minus 1pt{The multi-concept queries used in our experiments.} }}{\thepage }}
\newlabel{tQueries}{{1}{\thepage }}
\@writefile{toc}{\contentsline {subsubsection}{\numberline {4.1.4}Practical considerations in implementation}{\thepage }}
\@writefile{toc}{\contentsline {subsection}{\numberline {4.2}Comparison results}{\thepage }}
\@writefile{toc}{\contentsline {paragraph}{Comparison.}{\thepage }}
\@writefile{toc}{\contentsline {paragraph}{The benefit of more concepts.}{\thepage }}
\citation{wang2013action}
\citation{hou2014damn}
\citation{yu2012weak}
\@writefile{lot}{\contentsline {table}{\numberline {2}{\ignorespaces Comparison results of different scoring functions in pair-concept based video retrieval.}}{\thepage }}
\newlabel{tComparison}{{2}{\thepage }}
\@writefile{lof}{\contentsline {figure}{\numberline {2}{\ignorespaces The effects of the 0-1 loss based stopping criterion in optimization. For both the video-level scoring function $f_\text  {corr-2}$ and shot-level function $f_\text  {shot-VS}$, the introduction of the 0-1 loss significantly improves the performance of the hinge loss.}}{\thepage }}
\newlabel{fHinge-0-1}{{2}{\thepage }}
\@writefile{toc}{\contentsline {subsection}{\numberline {4.3}The effect of the 0-1 loss}{\thepage }}
\newlabel{sExpLoss}{{4.3}{\thepage }}
\@writefile{lof}{\contentsline {figure}{\numberline {3}{\ignorespaces The video retrieval results using \emph  {previously unseen} queries: (a) single-concept queries, (b) pair-concept queries, and (c) triple-concept queries. }}{\thepage }}
\newlabel{fTriplets}{{3}{\thepage }}
\bibstyle{abbrv}
\bibdata{sigproc}
\bibcite{althoff2012detection}{1}
\bibcite{aslandogan1999techniques}{2}
\bibcite{aytar2008utilizing}{3}
\bibcite{campbell2007ibm}{4}
\bibcite{chang2007large}{5}
\bibcite{chang2005columbia}{6}
\bibcite{chapelle2010efficient}{7}
\bibcite{chen2014deepsentibank}{8}
\bibcite{dehghanucf}{9}
\bibcite{farhadi2009describing}{10}
\bibcite{grangier2008discriminative}{11}
\bibcite{guillaumin2009tagprop}{12}
\bibcite{haubold2008web}{13}
\@writefile{lot}{\contentsline {table}{\numberline {3}{\ignorespaces Results over three different datasets}}{\thepage }}
\newlabel{tNew}{{3}{\thepage }}
\@writefile{toc}{\contentsline {subsection}{\numberline {4.4}Generalizing out of the training queries}{\thepage }}
\@writefile{toc}{\contentsline {subsection}{\numberline {4.5}Analysis on IACC.2.C Dataset}{\thepage }}
\@writefile{lof}{\contentsline {figure}{\numberline {4}{\ignorespaces Ratio of positives to the total number of videos in each set. 50 queries with highest frequency of positives has been considered for each set.}}{\thepage }}
\newlabel{DiffYears}{{4}{\thepage }}
\@writefile{toc}{\contentsline {subsection}{\numberline {4.6}Qualitative analyses}{\thepage }}
\@writefile{toc}{\contentsline {section}{\numberline {5}Conclusion}{\thepage }}
\newlabel{sConclusion}{{5}{\thepage }}
\@writefile{toc}{\contentsline {section}{\numberline {6}References}{\thepage }}
\bibcite{hauptmann2007many}{14}
\bibcite{herbrich1999large}{15}
\bibcite{hou2014damn}{16}
\bibcite{hu2011survey}{17}
\bibcite{index2013zettabyte}{18}
\bibcite{index520862global}{19}
\bibcite{ishikawa2013picsom}{20}
\bibcite{iyengar2003discriminative}{21}
\bibcite{jarvelin2008discounted}{22}
\bibcite{jiang2015bridging}{23}
\bibcite{joachims2002optimizing}{24}
\bibcite{kennedy2008query}{25}
\bibcite{krizhevsky2012imagenet}{26}
\bibcite{lampert2014attribute}{27}
\bibcite{lan2012image}{28}
\bibcite{li2010object}{29}
\@writefile{lof}{\contentsline {figure}{\numberline {5}{\ignorespaces Some examples of queries and their rank. Each row is representing for one video and each column is corresponding to a sample frame of a shot.}}{\thepage }}
\newlabel{fExamples}{{5}{\thepage }}
\bibcite{li2013harvesting}{30}
\bibcite{li2007video}{31}
\bibcite{lowe2004distinctive}{32}
\bibcite{mc2005comparison}{33}
\bibcite{natsev2007semantic}{34}
\bibcite{neo2006video}{35}
\bibcite{2015trecvidover}{36}
\bibcite{over2014trecvid}{37}
\bibcite{perronnin2010improving}{38}
\bibcite{petterson2010reverse}{39}
\bibcite{ping2014marginal}{40}
\bibcite{qi2007correlative}{41}
\bibcite{sadanand2012action}{42}
\bibcite{shashua2002ranking}{43}
\bibcite{siddiquie2011image}{44}
\bibcite{smeaton2007techniques}{45}
\bibcite{smeaton2009high}{46}
\bibcite{snoek2013mediamill}{47}
\bibcite{snoek2007adding}{48}
\bibcite{snoek2008concept}{49}
\bibcite{snoek2006challenge}{50}
\bibcite{torresani2010efficient}{51}
\bibcite{tsochantaridis2004support}{52}
\bibcite{vapnik2013nature}{53}
\bibcite{vedaldi2010vlfeat}{54}
\bibcite{wang2007importance}{55}
\bibcite{wang2013action}{56}
\bibcite{wei2008selection}{57}
\bibcite{yan2003combination}{58}
\bibcite{yang2012complex}{59}
\bibcite{ye2015eventnet}{60}
\bibcite{yu2009learning}{61}
\bibcite{yu2012weak}{62}
