This is BibTeX, Version 0.99d (TeX Live 2015)
Capacity: max_strings=35307, hash_size=35307, hash_prime=30011
The top-level auxiliary file: main.aux
The style file: abbrv.bst
Database file #1: sigproc.bib
Warning--empty publisher in hou2014damn
Warning--empty publisher in lan2012image
Warning--empty publisher in torresani2010efficient
Warning--empty publisher in yang2012complex
You've used 62 entries,
            2118 wiz_defined-function locations,
            767 strings with 14113 characters,
and the built_in function-call counts, 22404 in all, are:
= -- 2037
> -- 1340
< -- 9
+ -- 534
- -- 464
* -- 1534
:= -- 3742
add.period$ -- 199
call.type$ -- 62
change.case$ -- 416
chr.to.int$ -- 0
cite$ -- 66
duplicate$ -- 891
empty$ -- 1759
format.name$ -- 464
if$ -- 4675
int.to.chr$ -- 0
int.to.str$ -- 62
missing$ -- 63
newline$ -- 313
num.names$ -- 124
pop$ -- 567
preamble$ -- 1
purify$ -- 355
quote$ -- 0
skip$ -- 532
stack$ -- 0
substring$ -- 874
swap$ -- 174
text.length$ -- 9
text.prefix$ -- 0
top$ -- 0
type$ -- 246
warning$ -- 4
while$ -- 173
width$ -- 64
write$ -- 651
(There were 4 warnings)
